%YAML 1.1
%TAG !u! tag:unity3d.com,2011:
--- !u!74 &7400000
AnimationClip:
  m_ObjectHideFlags: 0
  m_CorrespondingSourceObject: {fileID: 0}
  m_PrefabInstance: {fileID: 0}
  m_PrefabAsset: {fileID: 0}
  m_Name: Loading screen
  serializedVersion: 6
  m_Legacy: 0
  m_Compressed: 0
  m_UseHighQualityCurve: 1
  m_RotationCurves: []
  m_CompressedRotationCurves: []
  m_EulerCurves: []
  m_PositionCurves: []
  m_ScaleCurves: []
  m_FloatCurves: []
  m_PPtrCurves:
  - curve:
    - time: 0
      value: {fileID: 21300000, guid: 39907cc39a3cd2a448181497661fdfcb, type: 3}
    - time: 0.08
      value: {fileID: 21300000, guid: 5baaf1dff424e424c9a18953a497c40d, type: 3}
    - time: 0.16
      value: {fileID: 21300000, guid: 49643f814fab3464ea1baacdc3663ab8, type: 3}
    - time: 0.24
      value: {fileID: 21300000, guid: 07c366a4bd3a9db48b5f5a03d0464171, type: 3}
    - time: 0.32
      value: {fileID: 21300000, guid: dca4f827df06e594e9ad559bce281c56, type: 3}
    - time: 0.4
      value: {fileID: 21300000, guid: 0658544e2b5bfd644a014325520ed09f, type: 3}
    - time: 0.48
      value: {fileID: 21300000, guid: 4f9b01feefd6165409c650c6114ddb5e, type: 3}
    - time: 0.56
      value: {fileID: 21300000, guid: 39907cc39a3cd2a448181497661fdfcb, type: 3}
    attribute: m_Sprite
    path: 
    classID: 114
    script: {fileID: -765806418, guid: f70555f144d8491a825f0804e09c671c, type: 3}
  m_SampleRate: 25
  m_WrapMode: 0
  m_Bounds:
    m_Center: {x: 0, y: 0, z: 0}
    m_Extent: {x: 0, y: 0, z: 0}
  m_ClipBindingConstant:
    genericBindings:
    - serializedVersion: 2
      path: 0
      attribute: 2015549526
      script: {fileID: -765806418, guid: f70555f144d8491a825f0804e09c671c, type: 3}
      typeID: 114
      customType: 0
      isPPtrCurve: 1
    pptrCurveMapping:
    - {fileID: 21300000, guid: 39907cc39a3cd2a448181497661fdfcb, type: 3}
    - {fileID: 21300000, guid: 5baaf1dff424e424c9a18953a497c40d, type: 3}
    - {fileID: 21300000, guid: 49643f814fab3464ea1baacdc3663ab8, type: 3}
    - {fileID: 21300000, guid: 07c366a4bd3a9db48b5f5a03d0464171, type: 3}
    - {fileID: 21300000, guid: dca4f827df06e594e9ad559bce281c56, type: 3}
    - {fileID: 21300000, guid: 0658544e2b5bfd644a014325520ed09f, type: 3}
    - {fileID: 21300000, guid: 4f9b01feefd6165409c650c6114ddb5e, type: 3}
    - {fileID: 21300000, guid: 39907cc39a3cd2a448181497661fdfcb, type: 3}
  m_AnimationClipSettings:
    serializedVersion: 2
    m_AdditiveReferencePoseClip: {fileID: 0}
    m_AdditiveReferencePoseTime: 0
    m_StartTime: 0
    m_StopTime: 0.6
    m_OrientationOffsetY: 0
    m_Level: 0
    m_CycleOffset: 0
    m_HasAdditiveReferencePose: 0
    m_LoopTime: 1
    m_LoopBlend: 0
    m_LoopBlendOrientation: 0
    m_LoopBlendPositionY: 0
    m_LoopBlendPositionXZ: 0
    m_KeepOriginalOrientation: 0
    m_KeepOriginalPositionY: 1
    m_KeepOriginalPositionXZ: 0
    m_HeightFromFeet: 0
    m_Mirror: 0
  m_EditorCurves: []
  m_EulerEditorCurves: []
  m_HasGenericRootTransform: 0
  m_HasMotionFloatCurves: 0
  m_Events: []
